CA2021_project1/codes/CPU.vcd
$date
	Tue Jun 01 12:44:01 2021
$end
$version
	Icarus Verilog
$end
$timescale
	1s
$end
$scope module TestBench $end
$var reg 1 ! Clk $end
$var reg 1 " Reset $end
$var reg 1 # Start $end
$var integer 32 $ counter [31:0] $end
$var integer 32 % flush [31:0] $end
$var integer 32 & i [31:0] $end
$var integer 32 ' outfile [31:0] $end
$var integer 32 ( stall [31:0] $end
$scope module CPU $end
$var wire 1 ! clk_i $end
$var wire 32 ) imme_in [31:0] $end
$var wire 1 " rst_i $end
$var wire 1 # start_i $end
$var wire 1 * stall $end
$var wire 1 + noop $end
$var wire 1 , comparison_result $end
$var wire 1 - branch_inst $end
$var wire 1 . branch_dec $end
$var wire 32 / branch_address [31:0] $end
$var wire 32 0 branch_PC [31:0] $end
$var wire 32 1 alu_in2 [31:0] $end
$var wire 5 2 WBrd [4:0] $end
$var wire 32 3 WBalu_out [31:0] $end
$var wire 1 4 WBRegWrite $end
$var wire 1 5 WBMemtoReg $end
$var wire 32 6 WBMem_out [31:0] $end
$var wire 32 7 PC_plus4 [31:0] $end
$var wire 32 8 PC_nxt [31:0] $end
$var wire 1 9 PCWrite $end
$var wire 32 : MUXrs2_out [31:0] $end
$var wire 32 ; MUXrs1_out [31:0] $end
$var wire 32 < MUXWB_out [31:0] $end
$var wire 5 = MEMrd [4:0] $end
$var wire 32 > MEMalu_out [31:0] $end
$var wire 1 ? MEMRegWrite $end
$var wire 1 @ MEMMemtoReg $end
$var wire 32 A MEMMem_out [31:0] $end
$var wire 1 B MEMMemWrite $end
$var wire 1 C MEMMemRead $end
$var wire 32 D MEMDatabus2 [31:0] $end
$var wire 32 E IFinstruction [31:0] $end
$var wire 32 F IFPC_current [31:0] $end
$var wire 5 G IDrs2 [4:0] $end
$var wire 5 H IDrs1 [4:0] $end
$var wire 5 I IDrd [4:0] $end
$var wire 32 J IDinstruction [31:0] $end
$var wire 32 K IDimme_out [31:0] $end
$var wire 7 L IDfunct7 [6:0] $end
$var wire 3 M IDfunct3 [2:0] $end
$var wire 1 N IDRegWrite $end
$var wire 32 O IDPC_current [31:0] $end
$var wire 7 P IDOp [6:0] $end
$var wire 1 Q IDMemtoReg $end
$var wire 1 R IDMemWrite $end
$var wire 1 S IDMemRead $end
$var wire 32 T IDDatabus2 [31:0] $end
$var wire 32 U IDDatabus1 [31:0] $end
$var wire 1 V IDALUSrc $end
$var wire 2 W IDALUOp [1:0] $end
$var wire 2 X ForwardB [1:0] $end
$var wire 2 Y ForwardA [1:0] $end
$var wire 5 Z EXrs2 [4:0] $end
$var wire 5 [ EXrs1 [4:0] $end
$var wire 5 \ EXrd [4:0] $end
$var wire 32 ] EXimme_out [31:0] $end
$var wire 7 ^ EXfunct7 [6:0] $end
$var wire 3 _ EXfunct3 [2:0] $end
$var wire 32 ` EXalu_out [31:0] $end
$var wire 1 a EXRegWrite $end
$var wire 7 b EXOp [6:0] $end
$var wire 1 c EXMemtoReg $end
$var wire 1 d EXMemWrite $end
$var wire 1 e EXMemRead $end
$var wire 32 f EXDatabus2 [31:0] $end
$var wire 32 g EXDatabus1 [31:0] $end
$var wire 1 h EXALUSrc $end
$var wire 2 i EXALUOp [1:0] $end
$var wire 3 j ALUCtrl [2:0] $end
$scope module ALU $end
$var wire 1 k Zero_o $end
$var wire 32 l data2_i [31:0] $end
$var wire 32 m data1_i [31:0] $end
$var wire 3 n ALUCtrl_i [2:0] $end
$var reg 32 o data_o [31:0] $end
$upscope $end
$scope module ALU_Control $end
$var wire 7 p funct7_i [6:0] $end
$var wire 3 q funct3_i [2:0] $end
$var wire 7 r Op_i [6:0] $end
$var wire 2 s ALUOp_i [1:0] $end
$var reg 3 t ALUCtrl_o [2:0] $end
$upscope $end
$scope module Add_PC $end
$var wire 32 u data2_in [31:0] $end
$var wire 32 v data_o [31:0] $end
$var wire 32 w data1_in [31:0] $end
$upscope $end
$scope module Add_address $end
$var wire 32 x data_o [31:0] $end
$var wire 32 y data2_in [31:0] $end
$var wire 32 z data1_in [31:0] $end
$upscope $end
$scope module Branch_decision $end
$var wire 1 , comparison_in $end
$var wire 1 - branch_inst_in $end
$var reg 1 . decision_out $end
$upscope $end
$scope module Comparison_unit $end
$var wire 32 { rs2_data_in [31:0] $end
$var wire 32 | rs1_data_in [31:0] $end
$var wire 1 , comparison_out $end
$upscope $end
$scope module Control $end
$var wire 7 } Op_i [6:0] $end
$var wire 1 + noop_i $end
$var reg 2 ~ ALUOp_o [1:0] $end
$var reg 1 V ALUSrc_o $end
$var reg 1 S MemRead_o $end
$var reg 1 R MemWrite_o $end
$var reg 1 Q MemtoReg_o $end
$var reg 1 N RegWrite_o $end
$var reg 1 - branch_inst_o $end
$upscope $end
$scope module Data_Memory $end
$var wire 1 ! clk_i $end
$var wire 32 !" data_o [31:0] $end
$var wire 32 "" data_i [31:0] $end
$var wire 32 #" addr_i [31:0] $end
$var wire 1 B MemWrite_i $end
$var wire 1 C MemRead_i $end
$upscope $end
$scope module EXMEM $end
$var wire 32 $" ALU_result_in [31:0] $end
$var wire 1 ! clk_i $end
$var wire 1 " rst_i $end
$var wire 32 %" reg_read_data_2_in [31:0] $end
$var wire 1 a RegWrite_in $end
$var wire 1 c MemtoReg_in $end
$var wire 1 d MemWrite_in $end
$var wire 1 e MemRead_in $end
$var wire 5 &" ID_EX_Rd_in [4:0] $end
$var reg 32 '" ALU_result_out [31:0] $end
$var reg 5 (" EX_MEM_Rd_out [4:0] $end
$var reg 1 C MemRead_out $end
$var reg 1 B MemWrite_out $end
$var reg 1 @ MemtoReg_out $end
$var reg 1 ? RegWrite_out $end
$var reg 32 )" reg_read_data_2_out [31:0] $end
$upscope $end
$scope module Forwarding_Control $end
$var wire 5 *" MEM_Rd [4:0] $end
$var wire 1 ? MEM_RegWrite $end
$var wire 1 +" nonzero_WB_rd $end
$var wire 1 ," nonzero_MEM_rd $end
$var wire 1 -" equal_WB_rs2 $end
$var wire 1 ." equal_WB_rs1 $end
$var wire 1 /" equal_MEM_rs2 $end
$var wire 1 0" equal_MEM_rs1 $end
$var wire 1 4 WB_RegWrite $end
$var wire 5 1" WB_Rd [4:0] $end
$var wire 5 2" EX_rs2 [4:0] $end
$var wire 5 3" EX_rs1 [4:0] $end
$var reg 2 4" ForwardA [1:0] $end
$var reg 2 5" ForwardB [1:0] $end
$upscope $end
$scope module Hazard_detection $end
$var wire 5 6" rs1_in [4:0] $end
$var wire 5 7" rs2_in [4:0] $end
$var wire 1 8" equal_rd_rs2 $end
$var wire 1 9" equal_rd_rs1 $end
$var wire 1 e MemRead_in $end
$var wire 5 :" EX_RD_in [4:0] $end
$var reg 1 9 PCWrite_out $end
$var reg 1 + noop_out $end
$var reg 1 * stall_out $end
$upscope $end
$scope module IDEX $end
$var wire 2 ;" ALUOp_in [1:0] $end
$var wire 1 V ALUSrc_in $end
$var wire 1 S MemRead_in $end
$var wire 1 R MemWrite_in $end
$var wire 1 Q MemtoReg_in $end
$var wire 7 <" Op_in [6:0] $end
$var wire 5 =" RD_in [4:0] $end
$var wire 1 N RegWrite_in $end
$var wire 1 ! clk_i $end
$var wire 3 >" funct3_in [2:0] $end
$var wire 7 ?" funct7_in [6:0] $end
$var wire 5 @" rs1_in [4:0] $end
$var wire 5 A" rs2_in [4:0] $end
$var wire 1 " rst_i $end
$var wire 32 B" reg_read_data_2_in [31:0] $end
$var wire 32 C" reg_read_data_1_in [31:0] $end
$var wire 32 D" immi_sign_extended_in [31:0] $end
$var reg 2 E" ALUOp_out [1:0] $end
$var reg 1 h ALUSrc_out $end
$var reg 1 e MemRead_out $end
$var reg 1 d MemWrite_out $end
$var reg 1 c MemtoReg_out $end
$var reg 7 F" Op_out [6:0] $end
$var reg 5 G" RD_out [4:0] $end
$var reg 1 a RegWrite_out $end
$var reg 3 H" funct3_out [2:0] $end
$var reg 7 I" funct7_out [6:0] $end
$var reg 32 J" immi_sign_extended_out [31:0] $end
$var reg 32 K" reg_read_data_1_out [31:0] $end
$var reg 32 L" reg_read_data_2_out [31:0] $end
$var reg 5 M" rs1_out [4:0] $end
$var reg 5 N" rs2_out [4:0] $end
$upscope $end
$scope module IFID $end
$var wire 1 ! clk_i $end
$var wire 1 . flush_i $end
$var wire 1 " rst_i $end
$var wire 1 * stall_i $end
$var wire 32 O" PC_current_i [31:0] $end
$var wire 32 P" IFID_instr_i [31:0] $end
$var reg 32 Q" IFID_instr_o [31:0] $end
$var reg 32 R" PC_current_o [31:0] $end
$upscope $end
$scope module Instruction_Memory $end
$var wire 32 S" instr_o [31:0] $end
$var wire 32 T" addr_i [31:0] $end
$upscope $end
$scope module MEMWB $end
$var wire 5 U" EX_MEM_Rd_in [4:0] $end
$var wire 1 @ MemtoReg_in $end
$var wire 1 ? RegWrite_in $end
$var wire 1 ! clk_i $end
$var wire 32 V" read_addr_data_in [31:0] $end
$var wire 32 W" read_alu_data_in [31:0] $end
$var wire 1 " rst_i $end
$var reg 5 X" MEM_WB_Rd_out [4:0] $end
$var reg 1 5 MemtoReg_out $end
$var reg 1 4 RegWrite_out $end
$var reg 32 Y" read_addr_data_out [31:0] $end
$var reg 32 Z" read_alu_data_out [31:0] $end
$upscope $end
$scope module MUXWB $end
$var wire 32 [" data1_i [31:0] $end
$var wire 32 \" data2_i [31:0] $end
$var wire 1 5 select_i $end
$var wire 32 ]" data_o [31:0] $end
$upscope $end
$scope module MUX_ALUSrc $end
$var wire 32 ^" data2_i [31:0] $end
$var wire 1 h select_i $end
$var wire 32 _" data_o [31:0] $end
$var wire 32 `" data1_i [31:0] $end
$upscope $end
$scope module MUX_PCSrc $end
$var wire 32 a" data1_i [31:0] $end
$var wire 32 b" data2_i [31:0] $end
$var wire 1 . select_i $end
$var wire 32 c" data_o [31:0] $end
$upscope $end
$scope module MUX_rs1_data $end
$var wire 2 d" control [1:0] $end
$var wire 32 e" in00 [31:0] $end
$var wire 32 f" in01 [31:0] $end
$var wire 32 g" in10 [31:0] $end
$var reg 32 h" mux_out [31:0] $end
$upscope $end
$scope module MUX_rs2_data $end
$var wire 2 i" control [1:0] $end
$var wire 32 j" in00 [31:0] $end
$var wire 32 k" in01 [31:0] $end
$var wire 32 l" in10 [31:0] $end
$var reg 32 m" mux_out [31:0] $end
$upscope $end
$scope module PC $end
$var wire 1 9 PCWrite_i $end
$var wire 1 ! clk_i $end
$var wire 32 n" pc_i [31:0] $end
$var wire 1 " rst_i $end
$var wire 1 # start_i $end
$var reg 32 o" pc_o [31:0] $end
$upscope $end
$scope module Registers $end
$var wire 5 p" RDaddr_i [4:0] $end
$var wire 32 q" RDdata_i [31:0] $end
$var wire 5 r" RS1addr_i [4:0] $end
$var wire 5 s" RS2addr_i [4:0] $end
$var wire 1 4 RegWrite_i $end
$var wire 1 ! clk_i $end
$var wire 32 t" RS2data_o [31:0] $end
$var wire 32 u" RS1data_o [31:0] $end
$upscope $end
$scope module Shift_left $end
$var wire 32 v" shift_out [31:0] $end
$var wire 32 w" shift_in [31:0] $end
$upscope $end
$scope module Sign_Extend $end
$var wire 7 x" Op_i [6:0] $end
$var wire 32 y" data_i [31:0] $end
$var wire 3 z" funct3_i [2:0] $end
$var reg 32 {" data_o [31:0] $end
$upscope $end
$upscope $end
$upscope $end
$enddefinitions $end
#0
$dumpvars
bx {"
b0 z"
b0 y"
b0 x"
bx w"
bx0 v"
b0 u"
b0 t"
b0 s"
b0 r"
b0 q"
b0 p"
b0 o"
b100 n"
b0 m"
b0 l"
b0 k"
b0 j"
b0 i"
b0 h"
b0 g"
b0 f"
b0 e"
b0 d"
b100 c"
bx b"
b100 a"
b0 `"
b0 _"
b0 ^"
b0 ]"
b0 \"
b0 ["
b0 Z"
b0 Y"
b0 X"
b0 W"
b0 V"
b0 U"
b0 T"
b101000000000001000010011 S"
b0 R"
b0 Q"
b101000000000001000010011 P"
b0 O"
b0 N"
b0 M"
b0 L"
b0 K"
b0 J"
b0 I"
b0 H"
b0 G"
b0 F"
b0 E"
bx D"
b0 C"
b0 B"
b0 A"
b0 @"
b0 ?"
b0 >"
b0 ="
b0 <"
b1 ;"
b0 :"
19"
18"
b0 7"
b0 6"
b0 5"
b0 4"
b0 3"
b0 2"
b0 1"
10"
1/"
1."
1-"
0,"
0+"
b0 *"
b0 )"
b0 ("
b0 '"
b0 &"
b0 %"
b0 $"
b0 #"
b0 ""
b0 !"
b1 ~
b0 }
b0 |
b0 {
bx0 z
b0 y
bx x
b0 w
b100 v
b100 u
bx t
b0 s
b0 r
b0 q
b0 p
b0 o
bx n
b0 m
b0 l
zk
bx j
b0 i
0h
b0 g
b0 f
0e
0d
0c
b0 b
0a
b0 `
b0 _
b0 ^
b0 ]
b0 \
b0 [
b0 Z
b0 Y
b0 X
b1 W
1V
b0 U
b0 T
0S
0R
0Q
b0 P
b0 O
1N
b0 M
b0 L
bx K
b0 J
b0 I
b0 H
b0 G
b0 F
b101000000000001000010011 E
b0 D
0C
0B
b0 A
0@
0?
b0 >
b0 =
b0 <
b0 ;
b0 :
19
b100 8
b100 7
b0 6
05
04
b0 3
b0 2
b0 1
bx0 0
bx /
0.
0-
1,
0+
0*
b0 )
b0 (
b11 '
b100000 &
b0 %
b0 $
0#
1"
1!
$end
#12
1#
0"
#25
0!
#50
09"
b10100 /
b10100 x
b10100 b"
b10100 0
b10100 z
b10100 v"
b1010 K
b1010 D"
b1010 w"
b1010 {"
b1010 G
b1010 6"
b1010 A"
b1010 s"
b100 I
b100 ="
b10011 P
b10011 }
b10011 <"
b10011 x"
bx 1
bx l
bx _"
b110000000000001010010011 E
b110000000000001010010011 P"
b110000000000001010010011 S"
b1000 8
b1000 c"
b1000 n"
b101000000000001000010011 )
b101000000000001000010011 y"
b101000000000001000010011 J
b101000000000001000010011 Q"
bx ]
bx J"
bx ^"
b1 i
b1 s
b1 E"
1h
1a
b1000 7
b1000 v
b1000 a"
b100 F
b100 w
b100 O"
b100 T"
b100 o"
b1 $
1!
#75
0!
#100
b11000 0
b11000 z
b11000 v"
b1010 `
b1010 o
b1010 $"
0-"
0/"
08"
b1100 G
b1100 6"
b1100 A"
b1100 s"
b101 I
b101 ="
b1100 K
b1100 D"
b1100 w"
b1100 {"
b11111111001100000000001100010011 E
b11111111001100000000001100010011 P"
b11111111001100000000001100010011 S"
b1100 8
b1100 c"
b1100 n"
b100 j
b100 n
b100 t
b1010 1
b1010 l
b1010 _"
b11100 /
b11100 x
b11100 b"
b100 O
b100 y
b100 R"
b110000000000001010010011 )
b110000000000001010010011 y"
b110000000000001010010011 J
b110000000000001010010011 Q"
b1100 7
b1100 v
b1100 a"
b1000 F
b1000 w
b1000 O"
b1000 T"
b1000 o"
b10011 b
b10011 r
b10011 F"
b1010 ]
b1010 J"
b1010 ^"
b1010 Z
b1010 2"
b1010 N"
b100 \
b100 &"
b100 :"
b100 G"
1?
b10 $
1!
#125
0!
#150
b11111111111111111111111111100110 0
b11111111111111111111111111100110 z
b11111111111111111111111111100110 v"
1,"
00"
b1100 `
b1100 o
b1100 $"
b1111111 L
b1111111 ?"
b10011 G
b10011 6"
b10011 A"
b10011 s"
b110 I
b110 ="
b11111111111111111111111111110011 K
b11111111111111111111111111110011 D"
b11111111111111111111111111110011 w"
b11111111111111111111111111110011 {"
b1100 1
b1100 l
b1100 _"
b1000000000000001110010011 E
b1000000000000001110010011 P"
b1000000000000001110010011 S"
b10000 8
b10000 c"
b10000 n"
b11111111111111111111111111101110 /
b11111111111111111111111111101110 x
b11111111111111111111111111101110 b"
b1000 O
b1000 y
b1000 R"
b11111111001100000000001100010011 )
b11111111001100000000001100010011 y"
b11111111001100000000001100010011 J
b11111111001100000000001100010011 Q"
14
b100 =
b100 ("
b100 *"
b100 U"
b1010 >
b1010 #"
b1010 '"
b1010 W"
b1010 g"
b1010 l"
b1100 ]
b1100 J"
b1100 ^"
b1100 Z
b1100 2"
b1100 N"
b101 \
b101 &"
b101 :"
b101 G"
b10000 7
b10000 v
b10000 a"
b1100 F
b1100 w
b1100 O"
b1100 T"
b1100 o"
b11 $
1!
#175
0!
#200
b100000 0
b100000 z
b100000 v"
b11111111111111111111111111110011 `
b11111111111111111111111111110011 o
b11111111111111111111111111110011 $"
0."
1+"
b0 L
b0 ?"
b10000 G
b10000 6"
b10000 A"
b10000 s"
b111 I
b111 ="
b10000 K
b10000 D"
b10000 w"
b10000 {"
b10010000000011 E
b10010000000011 P"
b10010000000011 S"
b10100 8
b10100 c"
b10100 n"
b11111111111111111111111111110011 1
b11111111111111111111111111110011 l
b11111111111111111111111111110011 _"
b1010 <
b1010 ]"
b1010 f"
b1010 k"
b1010 q"
b101100 /
b101100 x
b101100 b"
b1100 O
b1100 y
b1100 R"
b1000000000000001110010011 )
b1000000000000001110010011 y"
b1000000000000001110010011 J
b1000000000000001110010011 Q"
b10100 7
b10100 v
b10100 a"
b10000 F
b10000 w
b10000 O"
b10000 T"
b10000 o"
b1111111 ^
b1111111 p
b1111111 I"
b11111111111111111111111111110011 ]
b11111111111111111111111111110011 J"
b11111111111111111111111111110011 ^"
b10011 Z
b10011 2"
b10011 N"
b110 \
b110 &"
b110 :"
b110 G"
b101 =
b101 ("
b101 *"
b101 U"
b1100 >
b1100 #"
b1100 '"
b1100 W"
b1100 g"
b1100 l"
b100 2
b100 1"
b100 X"
b100 p"
b1010 3
b1010 Z"
b1010 ["
b100 $
1!
#225
0!
#250
1Q
1S
b0 0
b0 z
b0 v"
b10000 `
b10000 o
b10000 $"
b0 G
b0 6"
b0 A"
b0 s"
b10 M
b10 >"
b10 z"
b1000 I
b1000 ="
b11 P
b11 }
b11 <"
b11 x"
b0 K
b0 D"
b0 w"
b0 {"
b1100 <
b1100 ]"
b1100 f"
b1100 k"
b1100 q"
b10000 1
b10000 l
b10000 _"
b10000000010010010000011 E
b10000000010010010000011 P"
b10000000010010010000011 S"
b11000 8
b11000 c"
b11000 n"
b10000 /
b10000 x
b10000 b"
b10000 O
b10000 y
b10000 R"
b10010000000011 )
b10010000000011 y"
b10010000000011 J
b10010000000011 Q"
b101 2
b101 1"
b101 X"
b101 p"
b1100 3
b1100 Z"
b1100 ["
b110 =
b110 ("
b110 *"
b110 U"
b11111111111111111111111111110011 >
b11111111111111111111111111110011 #"
b11111111111111111111111111110011 '"
b11111111111111111111111111110011 W"
b11111111111111111111111111110011 g"
b11111111111111111111111111110011 l"
b0 ^
b0 p
b0 I"
b10000 ]
b10000 J"
b10000 ^"
b10000 Z
b10000 2"
b10000 N"
b111 \
b111 &"
b111 :"
b111 G"
b11000 7
b11000 v
b11000 a"
b10100 F
b10100 w
b10100 O"
b10100 T"
b10100 o"
b101 $
1!
#275
0!
#300
0,
b1010 T
b1010 {
b1010 B"
b1010 t"
b1000 0
b1000 z
b1000 v"
b0 `
b0 o
b0 $"
b100 G
b100 6"
b100 A"
b100 s"
b1001 I
b1001 ="
b100 K
b100 D"
b100 w"
b100 {"
b100000000010010100000011 E
b100000000010010100000011 P"
b100000000010010100000011 S"
b11100 8
b11100 c"
b11100 n"
b0 1
b0 l
b0 _"
b11111111111111111111111111110011 <
b11111111111111111111111111110011 ]"
b11111111111111111111111111110011 f"
b11111111111111111111111111110011 k"
b11111111111111111111111111110011 q"
b11100 /
b11100 x
b11100 b"
b10100 O
b10100 y
b10100 R"
b10000000010010010000011 )
b10000000010010010000011 y"
b10000000010010010000011 J
b10000000010010010000011 Q"
b11100 7
b11100 v
b11100 a"
b11000 F
b11000 w
b11000 O"
b11000 T"
b11000 o"
b11 b
b11 r
b11 F"
b10 _
b10 q
b10 H"
b0 ]
b0 J"
b0 ^"
b0 Z
b0 2"
b0 N"
b1000 \
b1000 &"
b1000 :"
b1000 G"
1e
1c
b111 =
b111 ("
b111 *"
b111 U"
b10000 >
b10000 #"
b10000 '"
b10000 W"
b10000 g"
b10000 l"
b110 2
b110 1"
b110 X"
b110 p"
b11111111111111111111111111110011 3
b11111111111111111111111111110011 Z"
b11111111111111111111111111110011 ["
b110 $
1!
#325
0!
#350
b1010 :
b1010 %"
b1010 `"
b1010 m"
1,
b0 T
b0 {
b0 B"
b0 t"
b10000 0
b10000 z
b10000 v"
b100 `
b100 o
b100 $"
b1000 G
b1000 6"
b1000 A"
b1000 s"
b1010 I
b1010 ="
b1000 K
b1000 D"
b1000 w"
b1000 {"
b10000 <
b10000 ]"
b10000 f"
b10000 k"
b10000 q"
b101 A
b101 !"
b101 V"
b100 1
b100 l
b100 _"
b11000101010000000100011 E
b11000101010000000100011 P"
b11000101010000000100011 S"
b100000 8
b100000 c"
b100000 n"
b101000 /
b101000 x
b101000 b"
b11000 O
b11000 y
b11000 R"
b100000000010010100000011 )
b100000000010010100000011 y"
b100000000010010100000011 J
b100000000010010100000011 Q"
b111 2
b111 1"
b111 X"
b111 p"
b10000 3
b10000 Z"
b10000 ["
b1000 =
b1000 ("
b1000 *"
b1000 U"
b0 >
b0 #"
b0 '"
b0 W"
b0 g"
b0 l"
1C
1@
b100 ]
b100 J"
b100 ^"
b1010 f
b1010 L"
b1010 j"
b100 Z
b100 2"
b100 N"
b1001 \
b1001 &"
b1001 :"
b1001 G"
b100000 7
b100000 v
b100000 a"
b11100 F
b11100 w
b11100 O"
b11100 T"
b11100 o"
b111 $
1!
#375
0!
#400
b1 X
b1 5"
b1 i"
b101 :
b101 %"
b101 `"
b101 m"
0,
b1100 U
b1100 |
b1100 C"
b1100 u"
0Q
1R
0S
0N
b0 0
b0 z
b0 v"
b1000 `
b1000 o
b1000 $"
1-"
b110 A
b110 !"
b110 V"
b11111111111111111111111111110011 T
b11111111111111111111111111110011 {
b11111111111111111111111111110011 B"
b11111111111111111111111111110011 t"
b110 G
b110 6"
b110 A"
b110 s"
b101 H
b101 7"
b101 @"
b101 r"
b0 I
b0 ="
b100011 P
b100011 }
b100011 <"
b100011 x"
b0 K
b0 D"
b0 w"
b0 {"
b11100111000000100000110011 E
b11100111000000100000110011 P"
b11100111000000100000110011 S"
b100100 8
b100100 c"
b100100 n"
b1000 1
b1000 l
b1000 _"
b101 <
b101 ]"
b101 f"
b101 k"
b101 q"
b11100 /
b11100 x
b11100 b"
b11100 O
b11100 y
b11100 R"
b11000101010000000100011 )
b11000101010000000100011 y"
b11000101010000000100011 J
b11000101010000000100011 Q"
b100100 7
b100100 v
b100100 a"
b100000 F
b100000 w
b100000 O"
b100000 T"
b100000 o"
b1000 ]
b1000 J"
b1000 ^"
b0 f
b0 L"
b0 j"
b1000 Z
b1000 2"
b1000 N"
b1010 \
b1010 &"
b1010 :"
b1010 G"
b1001 =
b1001 ("
b1001 *"
b1001 U"
b1010 D
b1010 ""
b1010 )"
b100 >
b100 #"
b100 '"
b100 W"
b100 g"
b100 l"
b1000 2
b1000 1"
b1000 X"
b1000 p"
b101 6
b101 Y"
b101 \"
b0 3
b0 Z"
b0 ["
15
b1000 $
1!
#425
0!
#450
b0 X
b0 5"
b0 i"
b11111111111111111111111111110011 :
b11111111111111111111111111110011 %"
b11111111111111111111111111110011 `"
b11111111111111111111111111110011 m"
b1100 ;
b1100 m
b1100 h"
b11111111111111111111111111100111 T
b11111111111111111111111111100111 {
b11111111111111111111111111100111 B"
b11111111111111111111111111100111 t"
b11111111111111111111111111101000 U
b11111111111111111111111111101000 |
b11111111111111111111111111101000 C"
b11111111111111111111111111101000 u"
0R
b10 W
b10 ~
b10 ;"
1N
0V
b1100000 0
b1100000 z
b1100000 v"
b1010 A
b1010 !"
b1010 V"
b1100 `
b1100 o
b1100 $"
0-"
b1 L
b1 ?"
b11001 G
b11001 6"
b11001 A"
b11001 s"
b11000 H
b11000 7"
b11000 @"
b11000 r"
b0 M
b0 >"
b0 z"
b10000 I
b10000 ="
b110011 P
b110011 }
b110011 <"
b110011 x"
b110000 K
b110000 D"
b110000 w"
b110000 {"
b110 <
b110 ]"
b110 f"
b110 k"
b110 q"
b0 1
b0 l
b0 _"
b11101111010000100010110011 E
b11101111010000100010110011 P"
b11101111010000100010110011 S"
b101000 8
b101000 c"
b101000 n"
b10000000 /
b10000000 x
b10000000 b"
b100000 O
b100000 y
b100000 R"
b11100111000000100000110011 )
b11100111000000100000110011 y"
b11100111000000100000110011 J
b11100111000000100000110011 Q"
b1001 2
b1001 1"
b1001 X"
b1001 p"
b110 6
b110 Y"
b110 \"
b100 3
b100 Z"
b100 ["
b1010 =
b1010 ("
b1010 *"
b1010 U"
b101 D
b101 ""
b101 )"
b1000 >
b1000 #"
b1000 '"
b1000 W"
b1000 g"
b1000 l"
b100011 b
b100011 r
b100011 F"
b0 ]
b0 J"
b0 ^"
b11111111111111111111111111110011 f
b11111111111111111111111111110011 L"
b11111111111111111111111111110011 j"
b1100 g
b1100 K"
b1100 e"
b110 Z
b110 2"
b110 N"
b101 [
b101 3"
b101 M"
b0 \
b0 &"
b0 :"
b0 G"
1d
0e
0c
0a
b101000 7
b101000 v
b101000 a"
b100100 F
b100100 w
b100100 O"
b100100 T"
b100100 o"
b1001 $
1!
#475
0!
#500
b11111111111111111111111111101000 ;
b11111111111111111111111111101000 m
b11111111111111111111111111101000 h"
b11111111111111111111111111100111 :
b11111111111111111111111111100111 %"
b11111111111111111111111111100111 `"
b11111111111111111111111111100111 m"
b11111111111111111111111111100101 T
b11111111111111111111111111100101 {
b11111111111111111111111111100101 B"
b11111111111111111111111111100101 t"
b11111111111111111111111111100110 U
b11111111111111111111111111100110 |
b11111111111111111111111111100110 C"
b11111111111111111111111111100110 u"
b1001011000 `
b1001011000 o
b1001011000 $"
0,"
b11011 G
b11011 6"
b11011 A"
b11011 s"
b11010 H
b11010 7"
b11010 @"
b11010 r"
b10001 I
b10001 ="
b11110111100000100100110011 E
b11110111100000100100110011 P"
b11110111100000100100110011 S"
b101100 8
b101100 c"
b101100 n"
b0 j
b0 n
b0 t
b11111111111111111111111111100111 1
b11111111111111111111111111100111 l
b11111111111111111111111111100111 _"
b0 A
b0 !"
b0 V"
b1010 <
b1010 ]"
b1010 f"
b1010 k"
b1010 q"
b10000100 /
b10000100 x
b10000100 b"
b100100 O
b100100 y
b100100 R"
b11101111010000100010110011 )
b11101111010000100010110011 y"
b11101111010000100010110011 J
b11101111010000100010110011 Q"
b101100 7
b101100 v
b101100 a"
b101000 F
b101000 w
b101000 O"
b101000 T"
b101000 o"
b110011 b
b110011 r
b110011 F"
b0 _
b0 q
b0 H"
b1 ^
b1 p
b1 I"
b110000 ]
b110000 J"
b110000 ^"
b11111111111111111111111111100111 f
b11111111111111111111111111100111 L"
b11111111111111111111111111100111 j"
b11111111111111111111111111101000 g
b11111111111111111111111111101000 K"
b11111111111111111111111111101000 e"
b10 i
b10 s
b10 E"
0h
b11001 Z
b11001 2"
b11001 N"
b11000 [
b11000 3"
b11000 M"
b10000 \
b10000 &"
b10000 :"
b10000 G"
0d
1a
b0 =
b0 ("
b0 *"
b0 U"
b11111111111111111111111111110011 D
b11111111111111111111111111110011 ""
b11111111111111111111111111110011 )"
b1100 >
b1100 #"
b1100 '"
b1100 W"
b1100 g"
b1100 l"
1B
0C
0@
0?
b1010 2
b1010 1"
b1010 X"
b1010 p"
b1010 6
b1010 Y"
b1010 \"
b1000 3
b1000 Z"
b1000 ["
b1010 $
1!
#525
0!
#550
b11111111111111111111111111100101 1
b11111111111111111111111111100101 l
b11111111111111111111111111100101 _"
b1010111110 `
b1010111110 o
b1010111110 $"
b11111111111111111111111111100101 :
b11111111111111111111111111100101 %"
b11111111111111111111111111100101 `"
b11111111111111111111111111100101 m"
b11111111111111111111111111100110 ;
b11111111111111111111111111100110 m
b11111111111111111111111111100110 h"
b111010 T
b111010 {
b111010 B"
b111010 t"
b111000 U
b111000 |
b111000 C"
b111000 u"
0+"
1,"
b11101 G
b11101 6"
b11101 A"
b11101 s"
b11100 H
b11100 7"
b11100 @"
b11100 r"
b10010 I
b10010 ="
b1100 <
b1100 ]"
b1100 f"
b1100 k"
b1100 q"
b11111111110000100110110011 E
b11111111110000100110110011 P"
b11111111110000100110110011 S"
b110000 8
b110000 c"
b110000 n"
b10001000 /
b10001000 x
b10001000 b"
b101000 O
b101000 y
b101000 R"
b11110111100000100100110011 )
b11110111100000100100110011 y"
b11110111100000100100110011 J
b11110111100000100100110011 Q"
b0 2
b0 1"
b0 X"
b0 p"
b0 6
b0 Y"
b0 \"
b1100 3
b1100 Z"
b1100 ["
05
04
b10000 =
b10000 ("
b10000 *"
b10000 U"
b11111111111111111111111111100111 D
b11111111111111111111111111100111 ""
b11111111111111111111111111100111 )"
b1001011000 >
b1001011000 #"
b1001011000 '"
b1001011000 W"
b1001011000 g"
b1001011000 l"
0B
1?
b11111111111111111111111111100101 f
b11111111111111111111111111100101 L"
b11111111111111111111111111100101 j"
b11111111111111111111111111100110 g
b11111111111111111111111111100110 K"
b11111111111111111111111111100110 e"
b11011 Z
b11011 2"
b11011 N"
b11010 [
b11010 3"
b11010 M"
b10001 \
b10001 &"
b10001 :"
b10001 G"
b110000 7
b110000 v
b110000 a"
b101100 F
b101100 w
b101100 O"
b101100 T"
b101100 o"
b1011 $
1!
#575
0!
