b06611033_hw4/codes/testbench.vcd
$date
	Sat May 01 12:23:23 2021
$end
$version
	Icarus Verilog
$end
$timescale
	1s
$end
$scope module TestBench $end
$var reg 1 ! Clk $end
$var reg 1 " Reset $end
$var reg 1 # Start $end
$var integer 32 $ counter [31:0] $end
$var integer 32 % i [31:0] $end
$var integer 32 & outfile [31:0] $end
$scope module CPU $end
$var wire 32 ' Databus1 [31:0] $end
$var wire 32 ( Databus3 [31:0] $end
$var wire 1 ) RegWrite $end
$var wire 32 * alu_in1 [31:0] $end
$var wire 1 ! clk_i $end
$var wire 1 " rst_i $end
$var wire 1 # start_i $end
$var wire 5 + rs2 [4:0] $end
$var wire 5 , rs1 [4:0] $end
$var wire 5 - rd [4:0] $end
$var wire 32 . instruction [31:0] $end
$var wire 12 / imme_12bit [11:0] $end
$var wire 32 0 imme [31:0] $end
$var wire 7 1 func7 [6:0] $end
$var wire 3 2 func3 [2:0] $end
$var wire 32 3 alu_out [31:0] $end
$var wire 32 4 alu_in2 [31:0] $end
$var wire 32 5 PC_nxt [31:0] $end
$var wire 32 6 PC_current [31:0] $end
$var wire 7 7 Op [6:0] $end
$var wire 32 8 Databus2 [31:0] $end
$var wire 1 9 ALUSrc $end
$var wire 2 : ALUOp [1:0] $end
$var wire 3 ; ALUCtrl [2:0] $end
$scope module ALU $end
$var wire 1 < Zero_o $end
$var wire 32 = data1_i [31:0] $end
$var wire 32 > data2_i [31:0] $end
$var wire 3 ? ALUCtrl_i [2:0] $end
$var reg 32 @ data_o [31:0] $end
$upscope $end
$scope module ALU_Control $end
$var wire 3 A funct3_i [2:0] $end
$var wire 7 B funct7_i [6:0] $end
$var wire 2 C ALUOp_i [1:0] $end
$var reg 3 D ALUCtrl_o [2:0] $end
$upscope $end
$scope module Add_PC $end
$var wire 1 E data2_in $end
$var wire 32 F data_o [31:0] $end
$var wire 32 G data1_in [31:0] $end
$upscope $end
$scope module Control $end
$var wire 7 H Op_i [6:0] $end
$var wire 1 ) RegWrite_o $end
$var wire 1 9 ALUSrc_o $end
$var wire 2 I ALUOp_o [1:0] $end
$upscope $end
$scope module Instruction_Memory $end
$var wire 32 J instr_o [31:0] $end
$var wire 32 K addr_i [31:0] $end
$upscope $end
$scope module MUX_ALUSrc $end
$var wire 1 9 select_i $end
$var wire 32 L data_o [31:0] $end
$var wire 32 M data2_i [31:0] $end
$var wire 32 N data1_i [31:0] $end
$upscope $end
$scope module PC $end
$var wire 1 ! clk_i $end
$var wire 32 O pc_i [31:0] $end
$var wire 1 " rst_i $end
$var wire 1 # start_i $end
$var reg 32 P pc_o [31:0] $end
$upscope $end
$scope module Registers $end
$var wire 5 Q RDaddr_i [4:0] $end
$var wire 32 R RDdata_i [31:0] $end
$var wire 5 S RS1addr_i [4:0] $end
$var wire 32 T RS1data_o [31:0] $end
$var wire 5 U RS2addr_i [4:0] $end
$var wire 32 V RS2data_o [31:0] $end
$var wire 1 ) RegWrite_i $end
$var wire 1 ! clk_i $end
$upscope $end
$scope module Sign_Extend $end
$var wire 12 W data_i [11:0] $end
$var wire 3 X funct3_i [2:0] $end
$var wire 32 Y data_o [31:0] $end
$upscope $end
$upscope $end
$upscope $end
$enddefinitions $end
#0
$dumpvars
b1010 Y
b0 X
b1010 W
b0 V
b1010 U
b0 T
b0 S
b1010 R
b101 Q
b0 P
b100 O
b0 N
b1010 M
b1010 L
b0 K
b101000000000001010010011 J
b10 I
b10011 H
b0 G
b100 F
zE
b100 D
b10 C
b0 B
b0 A
b1010 @
b100 ?
b1010 >
b0 =
z<
b100 ;
b10 :
19
b0 8
b10011 7
b0 6
b100 5
b1010 4
b1010 3
b0 2
b0 1
b1010 0
b1010 /
b101000000000001010010011 .
b101 -
b0 ,
b1010 +
b0 *
1)
b1010 (
bz '
b11 &
b100000 %
b0 $
0#
0"
0!
$end
#12
1#
1"
#25
b1101 (
b1101 3
b1101 @
b1101 R
b1101 4
b1101 >
b1101 L
b1101 0
b1101 M
b1101 Y
b1101 /
b1101 W
b1101 +
b1101 U
b110 -
b110 Q
b110100000000001100010011 .
b110100000000001100010011 J
b1000 5
b1000 F
b1000 O
b100 6
b100 G
b100 K
b100 P
b1 $
1!
#50
0!
#75
09
b100110 0
b100110 M
b100110 Y
b0 ;
b0 ?
b0 D
b10000010 (
b10000010 3
b10000010 @
b10000010 R
b0 :
b0 C
b0 I
b100110 /
b100110 W
b1 1
b1 B
b1101 8
b1101 N
b1101 V
b110 +
b110 U
b1010 *
b1010 =
b1010 T
b101 ,
b101 S
b111 -
b111 Q
b110011 7
b110011 H
b10011000101000001110110011 .
b10011000101000001110110011 J
b1100 5
b1100 F
b1100 O
b1000 6
b1000 G
b1000 K
b1000 P
b10 $
1!
#100
0!
#125
b10101001 (
b10101001 3
b10101001 @
b10101001 R
b1101 *
b1101 =
b1101 T
b110 ,
b110 S
b11100 -
b11100 Q
b10011000110000111000110011 .
b10011000110000111000110011 J
b10000 5
b10000 F
b10000 O
b1100 6
b1100 G
b1100 K
b1100 P
b11 $
1!
#150
0!
#175
b1100 (
b1100 3
b1100 @
b1100 R
19
b11111111111111111111111111111111 0
b11111111111111111111111111111111 M
b11111111111111111111111111111111 Y
b100 ;
b100 ?
b100 D
b11111111111111111111111111111111 4
b11111111111111111111111111111111 >
b11111111111111111111111111111111 L
b10 :
b10 C
b10 I
b111111111111 /
b111111111111 W
b1111111 1
b1111111 B
b0 8
b0 N
b0 V
b11111 +
b11111 U
b110 -
b110 Q
b10011 7
b10011 H
b11111111111100110000001100010011 .
b11111111111100110000001100010011 J
b10100 5
b10100 F
b10100 O
b10000 6
b10000 G
b10000 K
b10000 P
b100 $
1!
#200
0!
#225
b11111 4
b11111 >
b11111 L
b11111 0
b11111 M
b11111 Y
b11111 /
b11111 W
b0 1
b0 B
b0 ,
b0 S
b11110 -
b11110 Q
b1111100000000111100010011 .
b1111100000000111100010011 J
b11111 (
b11111 3
b11111 @
b11111 R
b11000 5
b11000 F
b11000 O
b10100 6
b10100 G
b10100 K
b10100 P
b0 *
b0 =
b0 T
b101 $
1!
#250
0!
#275
b10000010 4
b10000010 >
b10000010 L
09
b111 0
b111 M
b111 Y
b0 (
b0 3
b0 @
b0 R
b11 ;
b11 ?
b11 D
b0 :
b0 C
b0 I
b111 /
b111 W
b10000010 8
b10000010 N
b10000010 V
b111 +
b111 U
b1100 *
b1100 =
b1100 T
b110 ,
b110 S
b111 2
b111 A
b111 X
b11100 -
b11100 Q
b110011 7
b110011 H
b11100110111111000110011 .
b11100110111111000110011 J
b11100 5
b11100 F
b11100 O
b11000 6
b11000 G
b11000 K
b11000 P
b110 $
1!
#300
0!
#325
b10000010 (
b10000010 3
b10000010 @
b10000010 R
b101 ;
b101 ?
b101 D
b0 *
b0 =
b0 T
b11100 ,
b11100 S
b100 2
b100 A
b100 X
b11101 -
b11101 Q
b11111100100111010110011 .
b11111100100111010110011 J
b100000 5
b100000 F
b100000 O
b11100 6
b11100 G
b11100 K
b11100 P
b111 $
1!
#350
0!
#375
b0 (
b0 3
b0 @
b0 R
b1101 0
b1101 M
b1101 Y
b0 4
b0 >
b0 L
b1101 /
b1101 W
b0 8
b0 N
b0 V
b1101 +
b1101 U
b1010 ,
b1010 S
b1110 -
b1110 Q
b110101010100011100110011 .
b110101010100011100110011 J
b100100 5
b100100 F
b100100 O
b100000 6
b100000 G
b100000 K
b100000 P
b1000 $
1!
#400
0!
#425
b11111111111111111111111101111110 (
b11111111111111111111111101111110 3
b11111111111111111111111101111110 @
b11111111111111111111111101111110 R
b10000000111 0
b10000000111 M
b10000000111 Y
b10000010 4
b10000010 >
b10000010 L
b1 ;
b1 ?
b1 D
b10000000111 /
b10000000111 W
b100000 1
b100000 B
b10000010 8
b10000010 N
b10000010 V
b111 +
b111 U
b11100 ,
b11100 S
b0 2
b0 A
b0 X
b101 -
b101 Q
b1000000011111100000001010110011 .
b1000000011111100000001010110011 J
b101000 5
b101000 F
b101000 O
b100100 6
b100100 G
b100100 K
b100100 P
b1001 $
1!
#450
0!
#475
b11111111111111111111111111111000 (
b11111111111111111111111111111000 3
b11111111111111111111111111111000 @
b11111111111111111111111111111000 R
19
b11111111111111111111111111111000 0
b11111111111111111111111111111000 M
b11111111111111111111111111111000 Y
b100 ;
b100 ?
b100 D
b11111111111111111111111111111000 4
b11111111111111111111111111111000 >
b11111111111111111111111111111000 L
b10 :
b10 C
b10 I
b111111111000 /
b111111111000 W
b1111111 1
b1111111 B
b0 8
b0 N
b0 V
b11000 +
b11000 U
b11111 ,
b11111 S
b11111 -
b11111 Q
b10011 7
b10011 H
b11111111100011111000111110010011 .
b11111111100011111000111110010011 J
b101100 5
b101100 F
b101100 O
b101000 6
b101000 G
b101000 K
b101000 P
b1010 $
1!
#500
0!
#525
b11111111111111111111111111110000 (
b11111111111111111111111111110000 3
b11111111111111111111111111110000 @
b11111111111111111111111111110000 R
b110000 5
b110000 F
b110000 O
b101100 6
b101100 G
b101100 K
b101100 P
b11111111111111111111111111111000 *
b11111111111111111111111111111000 =
b11111111111111111111111111111000 T
b1011 $
1!
#550
0!
#575
b11111111111111111111111111101000 (
b11111111111111111111111111101000 3
b11111111111111111111111111101000 @
b11111111111111111111111111101000 R
b110100 5
b110100 F
b110100 O
b110000 6
b110000 G
b110000 K
b110000 P
b11111111111111111111111111110000 *
b11111111111111111111111111110000 =
b11111111111111111111111111110000 T
b1100 $
1!
#600
0!
#625
b111111 4
b111111 >
b111111 L
b111111 0
b111111 M
b111111 Y
b111111 /
b111111 W
b1 1
b1 B
b11111111111111111111111111101000 8
b11111111111111111111111111101000 N
b11111111111111111111111111101000 V
b11111 +
b11111 U
b0 ,
b0 S
b111 -
b111 Q
b11111100000000001110010011 .
b11111100000000001110010011 J
b111111 (
b111111 3
b111111 @
b111111 R
b111000 5
b111000 F
b111000 O
b110100 6
b110100 G
b110100 K
b110100 P
b0 *
b0 =
b0 T
b1101 $
1!
#650
0!
#675
b10 4
b10 >
b10 L
b1111 (
b1111 3
b1111 @
b1111 R
b10 ;
b10 ?
b10 D
b10 0
b10 M
b10 Y
b10000000010 /
b10000000010 W
b100000 1
b100000 B
b0 8
b0 N
b0 V
b10 +
b10 U
b111111 *
b111111 =
b111111 T
b111 ,
b111 S
b101 2
b101 A
b101 X
b1000000001000111101001110010011 .
b1000000001000111101001110010011 J
b111100 5
b111100 F
b111100 O
b111000 6
b111000 G
b111000 K
b111000 P
b1110 $
1!
#700
0!
#725
b11 (
b11 3
b11 @
b11 R
b1000000 5
b1000000 F
b1000000 O
b111100 6
b111100 G
b111100 K
b111100 P
b1111 *
b1111 =
b1111 T
b1111 $
1!
#750
0!
#775
b0 (
b0 3
b0 @
b0 R
b1000100 5
b1000100 F
b1000100 O
b1000000 6
b1000000 G
b1000000 K
b1000000 P
b11 *
b11 =
b11 T
b10000 $
1!
#800
0!
#825
b1 4
b1 >
b1 L
b1 0
b1 M
b1 Y
b110 (
b110 3
b110 @
b110 R
b10000000001 /
b10000000001 W
b1 +
b1 U
b110 ,
b110 S
b110 -
b110 Q
b1000000000100110101001100010011 .
b1000000000100110101001100010011 J
b1001000 5
b1001000 F
b1001000 O
b1000100 6
b1000100 G
b1000100 K
b1000100 P
b1100 *
b1100 =
b1100 T
b10001 $
1!
#850
0!
#875
b11 (
b11 3
b11 @
b11 R
b1001100 5
b1001100 F
b1001100 O
b1001000 6
b1001000 G
b1001000 K
b1001000 P
b110 *
b110 =
b110 T
b10010 $
1!
#900
0!
#925
b1 (
b1 3
b1 @
b1 R
b1010000 5
b1010000 F
b1010000 O
b1001100 6
b1001100 G
b1001100 K
b1001100 P
b11 *
b11 =
b11 T
b10011 $
1!
#950
0!
#975
09
b110 ;
b110 ?
b110 D
b110 0
b110 M
b110 Y
b0 :
b0 C
b0 I
b110 /
b110 W
b0 1
b0 B
b1 8
b1 N
b1 V
b110 +
b110 U
b11111 ,
b11111 S
b1 2
b1 A
b1 X
b11111 -
b11111 Q
b110011 7
b110011 H
b11011111001111110110011 .
b11011111001111110110011 J
b11111111111111111111111111010000 (
b11111111111111111111111111010000 3
b11111111111111111111111111010000 @
b11111111111111111111111111010000 R
b1010100 5
b1010100 F
b1010100 O
b1010000 6
b1010000 G
b1010000 K
b1010000 P
b11111111111111111111111111101000 *
b11111111111111111111111111101000 =
b11111111111111111111111111101000 T
b10100 $
1!
#1000
0!
#1025
b11111111111111111111111110100000 (
b11111111111111111111111110100000 3
b11111111111111111111111110100000 @
b11111111111111111111111110100000 R
b1011000 5
b1011000 F
b1011000 O
b1010100 6
b1010100 G
b1010100 K
b1010100 P
b11111111111111111111111111010000 *
b11111111111111111111111111010000 =
b11111111111111111111111111010000 T
b10101 $
1!
#1050
0!
#1075
b0 0
b0 M
b0 Y
b0 4
b0 >
b0 L
b100 ;
b100 ?
b100 D
b0 /
b0 W
b0 8
b0 N
b0 V
b0 +
b0 U
b0 ,
b0 S
b0 2
b0 A
b0 X
b0 -
b0 Q
b0 7
b0 H
b0 .
b0 J
b0 (
b0 3
b0 @
b0 R
b1011100 5
b1011100 F
b1011100 O
b1011000 6
b1011000 G
b1011000 K
b1011000 P
b0 *
b0 =
b0 T
b10110 $
1!
#1100
0!
#1125
b1100000 5
b1100000 F
b1100000 O
b1011100 6
b1011100 G
b1011100 K
b1011100 P
b10111 $
1!
#1150
0!
#1175
b1100100 5
b1100100 F
b1100100 O
b1100000 6
b1100000 G
b1100000 K
b1100000 P
b11000 $
1!
#1200
0!
#1225
b1101000 5
b1101000 F
b1101000 O
b1100100 6
b1100100 G
b1100100 K
b1100100 P
b11001 $
1!
#1250
0!
#1275
b1101100 5
b1101100 F
b1101100 O
b1101000 6
b1101000 G
b1101000 K
b1101000 P
b11010 $
1!
#1300
0!
#1325
b1110000 5
b1110000 F
b1110000 O
b1101100 6
b1101100 G
b1101100 K
b1101100 P
b11011 $
1!
#1350
0!
#1375
b1110100 5
b1110100 F
b1110100 O
b1110000 6
b1110000 G
b1110000 K
b1110000 P
b11100 $
1!
#1400
0!
#1425
b1111000 5
b1111000 F
b1111000 O
b1110100 6
b1110100 G
b1110100 K
b1110100 P
b11101 $
1!
#1450
0!
#1475
b1111100 5
b1111100 F
b1111100 O
b1111000 6
b1111000 G
b1111000 K
b1111000 P
b11110 $
1!
#1500
0!
#1525
b10000000 5
b10000000 F
b10000000 O
b1111100 6
b1111100 G
b1111100 K
b1111100 P
1!
