CA2021_project2/codes/CPU.vcd
$date
	Wed Jun 30 14:54:24 2021
$end
$version
	Icarus Verilog
$end
$timescale
	1s
$end
$scope module testbench $end
$var wire 256 ! mem_cpu_data [255:0] $end
$var wire 1 " mem_cpu_ack $end
$var wire 1 # cpu_mem_write $end
$var wire 1 $ cpu_mem_enable $end
$var wire 256 % cpu_mem_data [255:0] $end
$var wire 32 & cpu_mem_addr [31:0] $end
$var reg 1 ' Clk $end
$var reg 1 ( Reset $end
$var reg 1 ) Start $end
$var reg 27 * address [26:0] $end
$var reg 1 + flag $end
$var reg 4 , index [3:0] $end
$var reg 25 - tag [24:0] $end
$var integer 32 . counter [31:0] $end
$var integer 32 / i [31:0] $end
$var integer 32 0 j [31:0] $end
$var integer 32 1 outfile [31:0] $end
$var integer 32 2 outfile2 [31:0] $end
$scope module CPU $end
$var wire 1 ' clk_i $end
$var wire 32 3 imme_in [31:0] $end
$var wire 1 ( rst_i $end
$var wire 1 ) start_i $end
$var wire 1 4 stall $end
$var wire 1 5 noop $end
$var wire 1 # mem_write_o $end
$var wire 1 $ mem_enable_o $end
$var wire 256 6 mem_data_o [255:0] $end
$var wire 256 7 mem_data_i [255:0] $end
$var wire 32 8 mem_addr_o [31:0] $end
$var wire 1 " mem_ack_i $end
$var wire 1 9 comparison_result $end
$var wire 1 : branch_inst $end
$var wire 1 ; branch_dec $end
$var wire 32 < branch_address [31:0] $end
$var wire 32 = branch_PC [31:0] $end
$var wire 32 > alu_in2 [31:0] $end
$var wire 5 ? WBrd [4:0] $end
$var wire 32 @ WBalu_out [31:0] $end
$var wire 1 A WBRegWrite $end
$var wire 1 B WBMemtoReg $end
$var wire 32 C WBMem_out [31:0] $end
$var wire 32 D PC_plus4 [31:0] $end
$var wire 32 E PC_nxt [31:0] $end
$var wire 1 F PCWrite $end
$var wire 1 G Mem_stall $end
$var wire 32 H MUXrs2_out [31:0] $end
$var wire 32 I MUXrs1_out [31:0] $end
$var wire 32 J MUXWB_out [31:0] $end
$var wire 5 K MEMrd [4:0] $end
$var wire 32 L MEMalu_out [31:0] $end
$var wire 1 M MEMRegWrite $end
$var wire 1 N MEMMemtoReg $end
$var wire 32 O MEMMem_out [31:0] $end
$var wire 1 P MEMMemWrite $end
$var wire 1 Q MEMMemRead $end
$var wire 32 R MEMDatabus2 [31:0] $end
$var wire 32 S IFinstruction [31:0] $end
$var wire 32 T IFPC_current [31:0] $end
$var wire 5 U IDrs2 [4:0] $end
$var wire 5 V IDrs1 [4:0] $end
$var wire 5 W IDrd [4:0] $end
$var wire 32 X IDinstruction [31:0] $end
$var wire 32 Y IDimme_out [31:0] $end
$var wire 7 Z IDfunct7 [6:0] $end
$var wire 3 [ IDfunct3 [2:0] $end
$var wire 1 \ IDRegWrite $end
$var wire 32 ] IDPC_current [31:0] $end
$var wire 7 ^ IDOp [6:0] $end
$var wire 1 _ IDMemtoReg $end
$var wire 1 ` IDMemWrite $end
$var wire 1 a IDMemRead $end
$var wire 32 b IDDatabus2 [31:0] $end
$var wire 32 c IDDatabus1 [31:0] $end
$var wire 1 d IDALUSrc $end
$var wire 2 e IDALUOp [1:0] $end
$var wire 2 f ForwardB [1:0] $end
$var wire 2 g ForwardA [1:0] $end
$var wire 5 h EXrs2 [4:0] $end
$var wire 5 i EXrs1 [4:0] $end
$var wire 5 j EXrd [4:0] $end
$var wire 32 k EXimme_out [31:0] $end
$var wire 7 l EXfunct7 [6:0] $end
$var wire 3 m EXfunct3 [2:0] $end
$var wire 32 n EXalu_out [31:0] $end
$var wire 1 o EXRegWrite $end
$var wire 7 p EXOp [6:0] $end
$var wire 1 q EXMemtoReg $end
$var wire 1 r EXMemWrite $end
$var wire 1 s EXMemRead $end
$var wire 32 t EXDatabus2 [31:0] $end
$var wire 32 u EXDatabus1 [31:0] $end
$var wire 1 v EXALUSrc $end
$var wire 2 w EXALUOp [1:0] $end
$var wire 3 x ALUCtrl [2:0] $end
$scope module ALU $end
$var wire 1 y Zero_o $end
$var wire 32 z data2_i [31:0] $end
$var wire 32 { data1_i [31:0] $end
$var wire 3 | ALUCtrl_i [2:0] $end
$var reg 32 } data_o [31:0] $end
$upscope $end
$scope module ALU_Control $end
$var wire 7 ~ funct7_i [6:0] $end
$var wire 3 !" funct3_i [2:0] $end
$var wire 7 "" Op_i [6:0] $end
$var wire 2 #" ALUOp_i [1:0] $end
$var reg 3 $" ALUCtrl_o [2:0] $end
$upscope $end
$scope module Add_PC $end
$var wire 32 %" data2_in [31:0] $end
$var wire 32 &" data_o [31:0] $end
$var wire 32 '" data1_in [31:0] $end
$upscope $end
$scope module Add_address $end
$var wire 32 (" data_o [31:0] $end
$var wire 32 )" data2_in [31:0] $end
$var wire 32 *" data1_in [31:0] $end
$upscope $end
$scope module Branch_decision $end
$var wire 1 9 comparison_in $end
$var wire 1 : branch_inst_in $end
$var reg 1 ; decision_out $end
$upscope $end
$scope module Comparison_unit $end
$var wire 32 +" rs2_data_in [31:0] $end
$var wire 32 ," rs1_data_in [31:0] $end
$var wire 1 9 comparison_out $end
$upscope $end
$scope module Control $end
$var wire 7 -" Op_i [6:0] $end
$var wire 1 5 noop_i $end
$var reg 2 ." ALUOp_o [1:0] $end
$var reg 1 d ALUSrc_o $end
$var reg 1 a MemRead_o $end
$var reg 1 ` MemWrite_o $end
$var reg 1 _ MemtoReg_o $end
$var reg 1 \ RegWrite_o $end
$var reg 1 : branch_inst_o $end
$upscope $end
$scope module EXMEM $end
$var wire 32 /" ALU_result_in [31:0] $end
$var wire 1 ' clk_i $end
$var wire 1 ( rst_i $end
$var wire 32 0" reg_read_data_2_in [31:0] $end
$var wire 1 o RegWrite_in $end
$var wire 1 q MemtoReg_in $end
$var wire 1 r MemWrite_in $end
$var wire 1 G MemStall_in $end
$var wire 1 s MemRead_in $end
$var wire 5 1" ID_EX_Rd_in [4:0] $end
$var reg 32 2" ALU_result_out [31:0] $end
$var reg 5 3" EX_MEM_Rd_out [4:0] $end
$var reg 1 Q MemRead_out $end
$var reg 1 P MemWrite_out $end
$var reg 1 N MemtoReg_out $end
$var reg 1 M RegWrite_out $end
$var reg 32 4" reg_read_data_2_out [31:0] $end
$upscope $end
$scope module Forwarding_Control $end
$var wire 5 5" MEM_Rd [4:0] $end
$var wire 1 M MEM_RegWrite $end
$var wire 1 6" nonzero_WB_rd $end
$var wire 1 7" nonzero_MEM_rd $end
$var wire 1 8" equal_WB_rs2 $end
$var wire 1 9" equal_WB_rs1 $end
$var wire 1 :" equal_MEM_rs2 $end
$var wire 1 ;" equal_MEM_rs1 $end
$var wire 1 A WB_RegWrite $end
$var wire 5 <" WB_Rd [4:0] $end
$var wire 5 =" EX_rs2 [4:0] $end
$var wire 5 >" EX_rs1 [4:0] $end
$var reg 2 ?" ForwardA [1:0] $end
$var reg 2 @" ForwardB [1:0] $end
$upscope $end
$scope module Hazard_detection $end
$var wire 5 A" rs1_in [4:0] $end
$var wire 5 B" rs2_in [4:0] $end
$var wire 1 C" equal_rd_rs2 $end
$var wire 1 D" equal_rd_rs1 $end
$var wire 1 s MemRead_in $end
$var wire 5 E" EX_RD_in [4:0] $end
$var reg 1 F PCWrite_out $end
$var reg 1 5 noop_out $end
$var reg 1 4 stall_out $end
$upscope $end
$scope module IDEX $end
$var wire 2 F" ALUOp_in [1:0] $end
$var wire 1 d ALUSrc_in $end
$var wire 1 a MemRead_in $end
$var wire 1 ` MemWrite_in $end
$var wire 1 _ MemtoReg_in $end
$var wire 7 G" Op_in [6:0] $end
$var wire 5 H" RD_in [4:0] $end
$var wire 1 \ RegWrite_in $end
$var wire 1 ' clk_i $end
$var wire 3 I" funct3_in [2:0] $end
$var wire 7 J" funct7_in [6:0] $end
$var wire 5 K" rs1_in [4:0] $end
$var wire 5 L" rs2_in [4:0] $end
$var wire 1 ( rst_i $end
$var wire 32 M" reg_read_data_2_in [31:0] $end
$var wire 32 N" reg_read_data_1_in [31:0] $end
$var wire 32 O" immi_sign_extended_in [31:0] $end
$var wire 1 G MemStall_in $end
$var reg 2 P" ALUOp_out [1:0] $end
$var reg 1 v ALUSrc_out $end
$var reg 1 s MemRead_out $end
$var reg 1 r MemWrite_out $end
$var reg 1 q MemtoReg_out $end
$var reg 7 Q" Op_out [6:0] $end
$var reg 5 R" RD_out [4:0] $end
$var reg 1 o RegWrite_out $end
$var reg 3 S" funct3_out [2:0] $end
$var reg 7 T" funct7_out [6:0] $end
$var reg 32 U" immi_sign_extended_out [31:0] $end
$var reg 32 V" reg_read_data_1_out [31:0] $end
$var reg 32 W" reg_read_data_2_out [31:0] $end
$var reg 5 X" rs1_out [4:0] $end
$var reg 5 Y" rs2_out [4:0] $end
$upscope $end
$scope module IFID $end
$var wire 1 ' clk_i $end
$var wire 1 ; flush_i $end
$var wire 1 ( rst_i $end
$var wire 1 4 stall_i $end
$var wire 32 Z" PC_current_i [31:0] $end
$var wire 1 G MemStall_in $end
$var wire 32 [" IFID_instr_i [31:0] $end
$var reg 32 \" IFID_instr_o [31:0] $end
$var reg 32 ]" PC_current_o [31:0] $end
$upscope $end
$scope module Instruction_Memory $end
$var wire 32 ^" instr_o [31:0] $end
$var wire 32 _" addr_i [31:0] $end
$upscope $end
$scope module MEMWB $end
$var wire 5 `" EX_MEM_Rd_in [4:0] $end
$var wire 1 N MemtoReg_in $end
$var wire 1 M RegWrite_in $end
$var wire 1 ' clk_i $end
$var wire 32 a" read_alu_data_in [31:0] $end
$var wire 1 ( rst_i $end
$var wire 32 b" read_addr_data_in [31:0] $end
$var wire 1 G MemStall_in $end
$var reg 5 c" MEM_WB_Rd_out [4:0] $end
$var reg 1 B MemtoReg_out $end
$var reg 1 A RegWrite_out $end
$var reg 32 d" read_addr_data_out [31:0] $end
$var reg 32 e" read_alu_data_out [31:0] $end
$upscope $end
$scope module MUXWB $end
$var wire 32 f" data1_i [31:0] $end
$var wire 32 g" data2_i [31:0] $end
$var wire 1 B select_i $end
$var wire 32 h" data_o [31:0] $end
$upscope $end
$scope module MUX_ALUSrc $end
$var wire 32 i" data2_i [31:0] $end
$var wire 1 v select_i $end
$var wire 32 j" data_o [31:0] $end
$var wire 32 k" data1_i [31:0] $end
$upscope $end
$scope module MUX_PCSrc $end
$var wire 32 l" data1_i [31:0] $end
$var wire 32 m" data2_i [31:0] $end
$var wire 1 ; select_i $end
$var wire 32 n" data_o [31:0] $end
$upscope $end
$scope module MUX_rs1_data $end
$var wire 2 o" control [1:0] $end
$var wire 32 p" in00 [31:0] $end
$var wire 32 q" in01 [31:0] $end
$var wire 32 r" in10 [31:0] $end
$var reg 32 s" mux_out [31:0] $end
$upscope $end
$scope module MUX_rs2_data $end
$var wire 2 t" control [1:0] $end
$var wire 32 u" in00 [31:0] $end
$var wire 32 v" in01 [31:0] $end
$var wire 32 w" in10 [31:0] $end
$var reg 32 x" mux_out [31:0] $end
$upscope $end
$scope module PC $end
$var wire 1 F PCWrite_i $end
$var wire 1 ' clk_i $end
$var wire 32 y" pc_i [31:0] $end
$var wire 1 ( rst_i $end
$var wire 1 ) start_i $end
$var wire 1 G stall_i $end
$var reg 32 z" pc_o [31:0] $end
$upscope $end
$scope module Registers $end
$var wire 5 {" RDaddr_i [4:0] $end
$var wire 32 |" RDdata_i [31:0] $end
$var wire 5 }" RS1addr_i [4:0] $end
$var wire 5 ~" RS2addr_i [4:0] $end
$var wire 1 A RegWrite_i $end
$var wire 1 ' clk_i $end
$var wire 32 !# RS2data_o [31:0] $end
$var wire 32 "# RS1data_o [31:0] $end
$upscope $end
$scope module Shift_left $end
$var wire 32 ## shift_out [31:0] $end
$var wire 32 $# shift_in [31:0] $end
$upscope $end
$scope module Sign_Extend $end
$var wire 7 %# Op_i [6:0] $end
$var wire 32 &# data_i [31:0] $end
$var wire 3 '# funct3_i [2:0] $end
$var reg 32 (# data_o [31:0] $end
$upscope $end
$scope module dcache $end
$var wire 1 )# cache_dirty $end
$var wire 1 *# cache_sram_enable $end
$var wire 4 +# cache_sram_index [3:0] $end
$var wire 1 ,# cache_sram_write $end
$var wire 1 ' clk_i $end
$var wire 1 Q cpu_MemRead_i $end
$var wire 1 P cpu_MemWrite_i $end
$var wire 32 -# cpu_addr_i [31:0] $end
$var wire 32 .# cpu_data_i [31:0] $end
$var wire 32 /# cpu_data_o [31:0] $end
$var wire 1 0# cpu_req $end
$var wire 1 G cpu_stall_o $end
$var wire 1 1# hit $end
$var wire 256 2# mem_data_o [255:0] $end
$var wire 1 $ mem_enable_o $end
$var wire 1 # mem_write_o $end
$var wire 256 3# r_hit_data [255:0] $end
$var wire 1 ( rst_i $end
$var wire 1 4# write_hit $end
$var wire 1 5# sram_valid $end
$var wire 22 6# sram_tag [21:0] $end
$var wire 1 7# sram_dirty $end
$var wire 25 8# sram_cache_tag [24:0] $end
$var wire 256 9# sram_cache_data [255:0] $end
$var wire 256 :# mem_data_i [255:0] $end
$var wire 32 ;# mem_addr_o [31:0] $end
$var wire 1 " mem_ack_i $end
$var wire 23 <# cpu_tag [22:0] $end
$var wire 5 =# cpu_offset [4:0] $end
$var wire 4 ># cpu_index [3:0] $end
$var wire 25 ?# cache_sram_tag [24:0] $end
$var wire 256 @# cache_sram_data [255:0] $end
$var reg 1 A# cache_write $end
$var reg 32 B# cpu_data [31:0] $end
$var reg 1 C# mem_enable $end
$var reg 1 D# mem_write $end
$var reg 3 E# state [2:0] $end
$var reg 256 F# w_hit_data [255:0] $end
$var reg 1 G# write_back $end
$scope module dcache_sram $end
$var wire 4 H# addr_i [3:0] $end
$var wire 1 ' clk_i $end
$var wire 256 I# data_i [255:0] $end
$var wire 1 *# enable_i $end
$var wire 1 ( rst_i $end
$var wire 25 J# tag_i [24:0] $end
$var wire 1 ,# write_i $end
$var reg 256 K# data_o [255:0] $end
$var reg 1 L# hit_o $end
$var reg 25 M# tag_o [24:0] $end
$var integer 32 N# i [31:0] $end
$var integer 32 O# j [31:0] $end
$upscope $end
$upscope $end
$upscope $end
$scope module Data_Memory $end
$var wire 1 " ack_o $end
$var wire 32 P# addr_i [31:0] $end
$var wire 1 ' clk_i $end
$var wire 256 Q# data_i [255:0] $end
$var wire 256 R# data_o [255:0] $end
$var wire 1 $ enable_i $end
$var wire 1 ( rst_i $end
$var wire 1 # write_i $end
$var wire 27 S# addr [26:0] $end
$var reg 4 T# count [3:0] $end
$var reg 256 U# data [255:0] $end
$var reg 2 V# state [1:0] $end
$upscope $end
$upscope $end
$enddefinitions $end
#0
$dumpvars
b0 V#
bx U#
b0 T#
b0 S#
bx R#
b0 Q#
b0 P#
b10 O#
b10000 N#
b0 M#
0L#
b0 K#
b1000000000000000000000000 J#
bx I#
b0 H#
0G#
b0 F#
b0 E#
0D#
0C#
b0 B#
0A#
bx @#
b1000000000000000000000000 ?#
b0 >#
b0 =#
b0 <#
b0 ;#
bx :#
b0 9#
b0 8#
07#
b0 6#
05#
04#
b0 3#
b0 2#
01#
00#
b0 /#
b0 .#
b0 -#
0,#
b0 +#
0*#
0)#
bx (#
bx '#
bx &#
bx %#
bx $#
bx0 ##
bx "#
bx !#
bx ~"
bx }"
b0 |"
b0 {"
b0 z"
b100 y"
b0 x"
b0 w"
b0 v"
b0 u"
b0 t"
b0 s"
b0 r"
b0 q"
b0 p"
b0 o"
b100 n"
bx m"
b100 l"
b0 k"
b0 j"
b0 i"
b0 h"
b0 g"
b0 f"
b0 e"
b0 d"
b0 c"
b0 b"
b0 a"
b0 `"
b0 _"
bx ^"
bx ]"
bx \"
bx ["
b0 Z"
b0 Y"
b0 X"
b0 W"
b0 V"
b0 U"
b0 T"
b0 S"
b0 R"
b0 Q"
b0 P"
bx O"
bx N"
bx M"
bx L"
bx K"
bx J"
bx I"
bx H"
bx G"
b1 F"
b0 E"
xD"
xC"
bx B"
bx A"
b0 @"
b0 ?"
b0 >"
b0 ="
b0 <"
1;"
1:"
19"
18"
07"
06"
b0 5"
b0 4"
b0 3"
b0 2"
b0 1"
b0 0"
b0 /"
b1 ."
bx -"
bx ,"
bx +"
bx0 *"
bx )"
bx ("
b0 '"
b100 &"
b100 %"
bx $"
b0 #"
b0 ""
b0 !"
b0 ~
b0 }
bx |
b0 {
b0 z
zy
bx x
b0 w
0v
b0 u
b0 t
0s
0r
0q
b0 p
0o
b0 n
b0 m
b0 l
b0 k
b0 j
b0 i
b0 h
b0 g
b0 f
b1 e
1d
bx c
bx b
0a
0`
0_
bx ^
bx ]
1\
bx [
bx Z
bx Y
bx X
bx W
bx V
bx U
b0 T
bx S
b0 R
0Q
0P
b0 O
0N
0M
b0 L
b0 K
b0 J
b0 I
b0 H
0G
1F
b100 E
b100 D
b0 C
0B
0A
b0 @
b0 ?
b0 >
bx0 =
bx <
0;
0:
x9
b0 8
bx 7
b0 6
05
04
bx 3
bx 2
bx 1
bx 0
bx /
b0 .
bx -
bx ,
x+
bx *
0)
1(
0'
b0 &
b0 %
0$
0#
0"
bx !
$end
#12
19
1D"
1C"
b0 b
b0 +"
b0 M"
b0 !#
b0 c
b0 ,"
b0 N"
b0 "#
b0 Z
b0 J"
b0 U
b0 A"
b0 L"
b0 ~"
b0 V
b0 B"
b0 K"
b0 }"
b0 [
b0 I"
b0 '#
b0 W
b0 H"
b0 ^
b0 -"
b0 G"
b0 %#
b101 2
b11 1
b0 ]
b0 )"
b0 ]"
b0 3
b0 &#
b0 X
b0 \"
b10 0
b10011110000011 S
b10011110000011 ["
b10011110000011 ^"
b1000000000 /
1)
0(
#25
b0 <
b0 ("
b0 m"
b0 =
b0 *"
b0 ##
1_
1a
b0 Y
b0 O"
b0 $#
b0 (#
bx >
bx z
bx j"
b1000000100001111101011110010011 S
b1000000100001111101011110010011 ["
b1000000100001111101011110010011 ^"
b1000 E
b1000 n"
b1000 y"
b10 [
b10 I"
b10 '#
b1111 W
b1111 H"
b11 ^
b11 -"
b11 G"
b11 %#
bx k
bx U"
bx i"
b1 w
b1 #"
b1 P"
1v
1o
b1000 D
b1000 &"
b1000 l"
b100 T
b100 '"
b100 Z"
b100 _"
b100 z"
b10011110000011 3
b10011110000011 &#
b10011110000011 X
b10011110000011 \"
b1 .
0+
1'
#50
0'
#75
b0 e
b0 ."
b0 F"
0\
0d
14
15
0F
0D"
0_
0a
b10000 =
b10000 *"
b10000 ##
b111100000010000000100011 S
b111100000010000000100011 ["
b111100000010000000100011 ^"
b1100 E
b1100 n"
b1100 y"
b100 x
b100 |
b100 $"
b0 >
b0 z
b0 j"
b100000 Z
b100000 J"
b1000 U
b1000 A"
b1000 L"
b1000 ~"
b1111 V
b1111 B"
b1111 K"
b1111 }"
b101 [
b101 I"
b101 '#
b10011 ^
b10011 -"
b10011 G"
b10011 %#
b1000 Y
b1000 O"
b1000 $#
b1000 (#
b1100 D
b1100 &"
b1100 l"
b1000 T
b1000 '"
b1000 Z"
b1000 _"
b1000 z"
b11 p
b11 ""
b11 Q"
b10 m
b10 !"
b10 S"
b0 k
b0 U"
b0 i"
b1111 j
b1111 1"
b1111 E"
b1111 R"
1s
1q
1M
b10100 <
b10100 ("
b10100 m"
b100 ]
b100 )"
b100 ]"
b1000000100001111101011110010011 3
b1000000100001111101011110010011 &#
b1000000100001111101011110010011 X
b1000000100001111101011110010011 \"
b10 .
1'
#100
0'
#125
b1 e
b1 ."
b1 F"
1\
1d
b10 g
b10 ?"
b10 o"
04
05
1F
17"
1G
08"
0:"
09"
1*#
10#
b10 x
b10 |
b10 $"
1A
b1111 K
b1111 3"
b1111 5"
b1111 `"
1Q
1N
b10011 p
b10011 ""
b10011 Q"
b101 m
b101 !"
b101 S"
b100000 l
b100000 ~
b100000 T"
b1000 k
b1000 U"
b1000 i"
b0 w
b0 #"
b0 P"
0v
b1000 h
b1000 ="
b1000 Y"
b1111 i
b1111 >"
b1111 X"
0s
0q
0o
b11 .
1'
#150
0'
#175
b100 E#
b100 .
1+
1'
#200
0'
#225
b1 E#
1$
1C#
b101 .
1'
#250
0'
#275
b1 T#
b1 V#
b110 .
1'
#300
0'
#325
b10 T#
b111 .
1'
#350
0'
#375
b11 T#
b1000 .
1'
#400
0'
#425
b100 T#
b1001 .
1'
#450
0'
#475
b101 T#
b1010 .
1'
#500
0'
#525
b110 T#
b1011 .
1'
#550
0'
#575
b111 T#
b1100 .
1'
#600
0'
#625
1"
b1000 T#
b1101 .
1'
#650
0'
#675
1,#
0"
b10 E#
1A#
0$
0C#
b0 T#
b0 V#
b100010001000100100010001000100011001100110011010001000100010001010101010101010110011001100110011101110111011110001000100010001001100110011001101010101010101010111011101110111100110011001100110111011101110111101110111011101111111111111111 @#
b100010001000100100010001000100011001100110011010001000100010001010101010101010110011001100110011101110111011110001000100010001001100110011001101010101010101010111011101110111100110011001100110111011101110111101110111011101111111111111111 I#
b1110 .
b100010001000100100010001000100011001100110011010001000100010001010101010101010110011001100110011101110111011110001000100010001001100110011001101010101010101010111011101110111100110011001100110111011101110111101110111011101111111111111111 !
b100010001000100100010001000100011001100110011010001000100010001010101010101010110011001100110011101110111011110001000100010001001100110011001101010101010101010111011101110111100110011001100110111011101110111101110111011101111111111111111 7
b100010001000100100010001000100011001100110011010001000100010001010101010101010110011001100110011101110111011110001000100010001001100110011001101010101010101010111011101110111100110011001100110111011101110111101110111011101111111111111111 :#
b100010001000100100010001000100011001100110011010001000100010001010101010101010110011001100110011101110111011110001000100010001001100110011001101010101010101010111011101110111100110011001100110111011101110111101110111011101111111111111111 R#
b100010001000100100010001000100011001100110011010001000100010001010101010101010110011001100110011101110111011110001000100010001001100110011001101010101010101010111011101110111100110011001100110111011101110111101110111011101111111111111111 U#
1'
#700
0'
#725
0G
b100010001000100100010001000100011001100110011010001000100010001010101010101010110011001100110011101110111011110001000100010001001100110011001101010101010101010111011101110111100110011001100110111011101110100000000000000000000000000000000 @#
b100010001000100100010001000100011001100110011010001000100010001010101010101010110011001100110011101110111011110001000100010001001100110011001101010101010101010111011101110111100110011001100110111011101110100000000000000000000000000000000 I#
15#
b100010001000100100010001000100011001100110011010001000100010001010101010101010110011001100110011101110111011110001000100010001001100110011001101010101010101010111011101110111100110011001100110111011101110100000000000000000000000000000000 F#
b11101110111011101111111111111111 O
b11101110111011101111111111111111 b"
b11101110111011101111111111111111 /#
b11101110111011101111111111111111 B#
11#
1L#
b1000000000000000000000000 8#
b1000000000000000000000000 M#
b100010001000100100010001000100011001100110011010001000100010001010101010101010110011001100110011101110111011110001000100010001001100110011001101010101010101010111011101110111100110011001100110111011101110111101110111011101111111111111111 3#
b100010001000100100010001000100011001100110011010001000100010001010101010101010110011001100110011101110111011110001000100010001001100110011001101010101010101010111011101110111100110011001100110111011101110111101110111011101111111111111111 %
b100010001000100100010001000100011001100110011010001000100010001010101010101010110011001100110011101110111011110001000100010001001100110011001101010101010101010111011101110111100110011001100110111011101110111101110111011101111111111111111 6
b100010001000100100010001000100011001100110011010001000100010001010101010101010110011001100110011101110111011110001000100010001001100110011001101010101010101010111011101110111100110011001100110111011101110111101110111011101111111111111111 2#
b100010001000100100010001000100011001100110011010001000100010001010101010101010110011001100110011101110111011110001000100010001001100110011001101010101010101010111011101110111100110011001100110111011101110111101110111011101111111111111111 Q#
b100010001000100100010001000100011001100110011010001000100010001010101010101010110011001100110011101110111011110001000100010001001100110011001101010101010101010111011101110111100110011001100110111011101110111101110111011101111111111111111 9#
b100010001000100100010001000100011001100110011010001000100010001010101010101010110011001100110011101110111011110001000100010001001100110011001101010101010101010111011101110111100110011001100110111011101110111101110111011101111111111111111 K#
0,#
b0 E#
0A#
b1111 .
1'
#750
0'
#775
b11111111111011101110111011111111 n
b11111111111011101110111011111111 }
b11111111111011101110111011111111 /"
b11101110111011101111111111111111 I
b11101110111011101111111111111111 {
b11101110111011101111111111111111 s"
b100010001000100100010001000100011001100110011010001000100010001010101010101010110011001100110011101110111011110001000100010001001100110011001101010101010101010111011101110111100110011001100110111011101110111101110111011101111111111111111 @#
b100010001000100100010001000100011001100110011010001000100010001010101010101010110011001100110011101110111011110001000100010001001100110011001101010101010101010111011101110111100110011001100110111011101110111101110111011101111111111111111 I#
05#
b0 F#
b0 O
b0 b"
b0 /#
b0 B#
01#
0L#
b0 8#
b0 M#
b0 3#
b0 %
b0 6
b0 2#
b0 Q#
b0 9#
b0 K#
b1 g
b1 ?"
b1 o"
09
b11101110111011101111111111111111 b
b11101110111011101111111111111111 +"
b11101110111011101111111111111111 M"
b11101110111011101111111111111111 !#
1D"
0C"
19"
16"
1`
0\
b0 =
b0 *"
b0 ##
b10000000010011100000011 S
b10000000010011100000011 ["
b10000000010011100000011 ^"
b10000 E
b10000 n"
b10000 y"
b1000 >
b1000 z
b1000 j"
0*#
00#
b11101110111011101111111111111111 J
b11101110111011101111111111111111 h"
b11101110111011101111111111111111 q"
b11101110111011101111111111111111 v"
b11101110111011101111111111111111 |"
b0 Z
b0 J"
b1111 U
b1111 A"
b1111 L"
b1111 ~"
b0 V
b0 B"
b0 K"
b0 }"
b10 [
b10 I"
b10 '#
b0 W
b0 H"
b100011 ^
b100011 -"
b100011 G"
b100011 %#
b0 Y
b0 O"
b0 $#
b0 (#
b10000 D
b10000 &"
b10000 l"
b1100 T
b1100 '"
b1100 Z"
b1100 _"
b1100 z"
b1 w
b1 #"
b1 P"
1v
1o
0Q
0N
0M
b1111 ?
b1111 <"
b1111 c"
b1111 {"
b11101110111011101111111111111111 C
b11101110111011101111111111111111 d"
b11101110111011101111111111111111 g"
1B
b1000 <
b1000 ("
b1000 m"
b1000 ]
b1000 )"
b1000 ]"
b111100000010000000100011 3
b111100000010000000100011 &#
b111100000010000000100011 X
b111100000010000000100011 \"
b10000 .
0+
1'
#800
0'
#825
b10 f
b10 @"
b10 t"
b0 I
b0 {
b0 s"
b0 g
b0 ?"
b0 o"
b11111111111011101110111011111111 H
b11111111111011101110111011111111 0"
b11111111111011101110111011111111 k"
b11111111111011101110111011111111 x"
19
b111111111110111011101110111 S#
b0 b
b0 +"
b0 M"
b0 !#
b11111111111011101110111011100000 &
b11111111111011101110111011100000 8
b11111111111011101110111011100000 ;#
b11111111111011101110111011100000 P#
bx00000000 O
bx00000000 b"
bx00000000 /#
bx00000000 B#
b0 n
b0 }
b0 /"
18"
1:"
09"
0;"
1C"
0D"
1_
0`
1a
1\
b1000 =
b1000 *"
b1000 ##
b0 J
b0 h"
b0 q"
b0 v"
b0 |"
b1011111111111011101110111 ?#
b1011111111111011101110111 J#
b11111111111011101110111 <#
b111 +#
b111 H#
b111 >#
b11111 =#
b100 x
b100 |
b100 $"
b0 >
b0 z
b0 j"
b1000000100001110101011100010011 S
b1000000100001110101011100010011 ["
b1000000100001110101011100010011 ^"
b10100 E
b10100 n"
b10100 y"
b100 U
b100 A"
b100 L"
b100 ~"
b1110 W
b1110 H"
b11 ^
b11 -"
b11 G"
b11 %#
b100 Y
b100 O"
b100 $#
b100 (#
b0 C
b0 d"
b0 g"
0B
0A
b11111111111011101110111011111111 L
b11111111111011101110111011111111 2"
b11111111111011101110111011111111 a"
b11111111111011101110111011111111 r"
b11111111111011101110111011111111 w"
b11111111111011101110111011111111 -#
1M
b100011 p
b100011 ""
b100011 Q"
b10 m
b10 !"
b10 S"
b0 l
b0 ~
b0 T"
b0 k
b0 U"
b0 i"
b11101110111011101111111111111111 t
b11101110111011101111111111111111 W"
b11101110111011101111111111111111 u"
b1111 h
b1111 ="
b1111 Y"
b0 i
b0 >"
b0 X"
b0 j
b0 1"
b0 E"
b0 R"
1r
0o
b10100 D
b10100 &"
b10100 l"
b10000 T
b10000 '"
b10000 Z"
b10000 _"
b10000 z"
b10100 <
b10100 ("
b10100 m"
b1100 ]
b1100 )"
b1100 ]"
b10000000010011100000011 3
b10000000010011100000011 &#
b10000000010011100000011 X
b10000000010011100000011 \"
b10001 .
1'
#850
0'
